input boxes;

u=0.5cm;

beginfig(0)
  boxjoin(a.ne=b.nw; a.se=b.sw; a.e-a.w=b.e-b.w);
  boxit.c1();
  boxit.c2();
  c1.dx=c1.dy=.5u;
  drawboxed(c1,c2);
  % 
  boxjoin(a.ne=b.nw; a.se=b.sw; a.e-a.w=b.e-b.w);
  boxit.c3();
  boxit.c4();
  c3.dx=c3.dy=.5u;
  c3.w=c2.e+(u,0);
  drawboxed(c3,c4);
  %
  boxjoin(a.ne=b.nw; a.se=b.sw; a.e-a.w=b.e-b.w);
  boxit.c5();
  boxit.c6();
  c5.dx=c5.dy=.5u;
  c5.w=c4.e+(u,0);
  drawboxed(c5,c6);
  %
  for i=1 upto 5:
    draw c[i].c withpen pencircle scaled .25u;
  endfor;
  draw c6.sw--c6.ne;
  drawarrow c2.c--c3.w;
  drawarrow c4.c--c5.w;
  drawarrow c1.c--(c1.s-(0,u));
  drawarrow c3.c--(c3.s-(0,u));
  drawarrow c5.c--(c5.s-(0,u));
  label.bot(btex $\T{sum}$ etex, (c1.s-(0,u)));
  label.bot(btex $\V{A}$ etex, (c3.s-(0,u)));
  label.bot(btex $\V{A}$ etex, (c5.s-(0,u)));
endfig;
